{
   "viewport": {
      "scale": 1,
      "offset": [1000, 500],
      "res": [2000, 1000]
   },
   "palette": {
      "background": "#0f0f10ff",
      "foreground": "#e0dfd5ff",
      "active": "#f06543ff",
      "inactive": "#3e3d3bff",
      "preview": "#b9d389ff"
   },
   "places": {
      "140427113724288": {
         "pos": [-200.0, 0],
         "capacity": Infinity,
         "tokens": 1
      },
      "140427122092048": {
         "pos": [200.0, 0],
         "capacity": Infinity,
         "tokens": 0
      }
   },
   "transitions": {
      "140427113723136": {
         "pos": [0, -100],
         "inputs": {
            "140427122092048": 1
         },
         "outputs": {
            "140427113724288": 1
         }
      },
      "140427113724768": {
         "pos": [0, 100],
         "inputs": {
            "140427113724288": 1
         },
         "outputs": {
            "140427122092048": 1
         }
      }
   },
   "arcs": {
      "140427113713824": {
         "orig": "140427113724288",
         "dest": "140427113724768",
         "is_input": true,
         "weight": 1
      },
      "140427113723088": {
         "orig": "140427113724768",
         "dest": "140427122092048",
         "is_input": false,
         "weight": 1
      },
      "140427113723280": {
         "orig": "140427122092048",
         "dest": "140427113723136",
         "is_input": true,
         "weight": 1
      },
      "140427113716944": {
         "orig": "140427113723136",
         "dest": "140427113724288",
         "is_input": false,
         "weight": 1
      }
   }
}
